Appendix C: Bayes factor design analysis for SP13 replication
…
We can now call the simulate_binom function to generate data:

set.seed(753)
sim_ex <- simulate_binom(
  Nsubj = 10,
  Nitem = 24,
  fixef_means = fixef_means,
  fixef_sigma = fixef_sigma,
  ranef_sigma_subj = ranef_sigma_subj,
  ranef_sigma_item = ranef_sigma_item
  )
sim_ex

## # A tibble: 480 x 14
## # Groups:   subject, trial_in_exp [120]
##    subject block trial_in_exp movement word_type  item pos_in_trial
##      <int> <dbl>        <dbl> <fct>    <fct>     <int>        <int>
##  1       1     1            1 arms     leg-word     17            1
##  2       1     1            1 arms     leg-word     19            2
##  3       1     1            1 arms     leg-word     22            3
##  4       1     1            1 arms     leg-word     23            4
##  5       1     1            2 arms     leg-word     24            1
##  6       1     1            2 arms     leg-word     18            2
##  7       1     1            2 arms     leg-word     20            3
##  8       1     1            2 arms     leg-word     14            4
##  9       1     1            3 arms     arm-word     10            1
## 10       1     1            3 arms     arm-word      1            2
## # ... with 470 more rows, and 7 more variables: preced_error <dbl>,
## #   Error <int>, LO_fixef <dbl>, LO_subj <dbl>, LO_item <dbl>, LO <dbl>,
## #   prob <dbl>
…
